


ARM Macro Assembler    Page 1 


    1 00000000         ; <<< Use Configuration Wizard in Context Menu >>>
    2 00000000         ;*******************************************************
                       ***********************
    3 00000000         ;
    4 00000000         ; startup_rvmdk.S - Startup code for use with Keil's uVi
                       sion.
    5 00000000         ;
    6 00000000         ; Copyright (c) 2013-2017 Texas Instruments Incorporated
                       .  All rights reserved.
    7 00000000         ; Software License Agreement
    8 00000000         ; 
    9 00000000         ;   Redistribution and use in source and binary forms, w
                       ith or without
   10 00000000         ;   modification, are permitted provided that the follow
                       ing conditions
   11 00000000         ;   are met:
   12 00000000         ; 
   13 00000000         ;   Redistributions of source code must retain the above
                        copyright
   14 00000000         ;   notice, this list of conditions and the following di
                       sclaimer.
   15 00000000         ; 
   16 00000000         ;   Redistributions in binary form must reproduce the ab
                       ove copyright
   17 00000000         ;   notice, this list of conditions and the following di
                       sclaimer in the
   18 00000000         ;   documentation and/or other materials provided with t
                       he  
   19 00000000         ;   distribution.
   20 00000000         ; 
   21 00000000         ;   Neither the name of Texas Instruments Incorporated n
                       or the names of
   22 00000000         ;   its contributors may be used to endorse or promote p
                       roducts derived
   23 00000000         ;   from this software without specific prior written pe
                       rmission.
   24 00000000         ; 
   25 00000000         ; THIS SOFTWARE IS PROVIDED BY THE COPYRIGHT HOLDERS AND
                        CONTRIBUTORS
   26 00000000         ; "AS IS" AND ANY EXPRESS OR IMPLIED WARRANTIES, INCLUDI
                       NG, BUT NOT
   27 00000000         ; LIMITED TO, THE IMPLIED WARRANTIES OF MERCHANTABILITY 
                       AND FITNESS FOR
   28 00000000         ; A PARTICULAR PURPOSE ARE DISCLAIMED. IN NO EVENT SHALL
                        THE COPYRIGHT
   29 00000000         ; OWNER OR CONTRIBUTORS BE LIABLE FOR ANY DIRECT, INDIRE
                       CT, INCIDENTAL,
   30 00000000         ; SPECIAL, EXEMPLARY, OR CONSEQUENTIAL DAMAGES (INCLUDIN
                       G, BUT NOT
   31 00000000         ; LIMITED TO, PROCUREMENT OF SUBSTITUTE GOODS OR SERVICE
                       S; LOSS OF USE,
   32 00000000         ; DATA, OR PROFITS; OR BUSINESS INTERRUPTION) HOWEVER CA
                       USED AND ON ANY
   33 00000000         ; THEORY OF LIABILITY, WHETHER IN CONTRACT, STRICT LIABI
                       LITY, OR TORT
   34 00000000         ; (INCLUDING NEGLIGENCE OR OTHERWISE) ARISING IN ANY WAY
                        OUT OF THE USE
   35 00000000         ; OF THIS SOFTWARE, EVEN IF ADVISED OF THE POSSIBILITY O
                       F SUCH DAMAGE.



ARM Macro Assembler    Page 2 


   36 00000000         ; 
   37 00000000         ; This is part of revision 2.1.4.178 of the Tiva Firmwar
                       e Development Package.
   38 00000000         ;
   39 00000000         ;*******************************************************
                       ***********************
   40 00000000         
   41 00000000         ;*******************************************************
                       ***********************
   42 00000000         ;
   43 00000000         ; <o> Stack Size (in Bytes) <0x0-0xFFFFFFFF:8>
   44 00000000         ;
   45 00000000         ;*******************************************************
                       ***********************
   46 00000000 00000100 
                       Stack   EQU              0x00000100
   47 00000000         
   48 00000000         ;*******************************************************
                       ***********************
   49 00000000         ;
   50 00000000         ; <o> Heap Size (in Bytes) <0x0-0xFFFFFFFF:8>
   51 00000000         ;
   52 00000000         ;*******************************************************
                       ***********************
   53 00000000 00000000 
                       Heap    EQU              0x00000000
   54 00000000         
   55 00000000         ;*******************************************************
                       ***********************
   56 00000000         ;
   57 00000000         ; Allocate space for the stack.
   58 00000000         ;
   59 00000000         ;*******************************************************
                       ***********************
   60 00000000                 AREA             STACK, NOINIT, READWRITE, ALIGN
=3
   61 00000000         StackMem
   62 00000000                 SPACE            Stack
   63 00000100         __initial_sp
   64 00000100         
   65 00000100         ;*******************************************************
                       ***********************
   66 00000100         ;
   67 00000100         ; Allocate space for the heap.
   68 00000100         ;
   69 00000100         ;*******************************************************
                       ***********************
   70 00000100                 AREA             HEAP, NOINIT, READWRITE, ALIGN=
3
   71 00000000         __heap_base
   72 00000000         HeapMem
   73 00000000                 SPACE            Heap
   74 00000000         __heap_limit
   75 00000000         
   76 00000000         ;*******************************************************
                       ***********************
   77 00000000         ;
   78 00000000         ; Indicate that the code in this file preserves 8-byte a
                       lignment of the stack.



ARM Macro Assembler    Page 3 


   79 00000000         ;
   80 00000000         ;*******************************************************
                       ***********************
   81 00000000                 PRESERVE8
   82 00000000         
   83 00000000         ;*******************************************************
                       ***********************
   84 00000000         ;
   85 00000000         ; Place code into the reset code section.
   86 00000000         ;
   87 00000000         ;*******************************************************
                       ***********************
   88 00000000                 AREA             RESET, CODE, READONLY
   89 00000000                 THUMB
   90 00000000         
   91 00000000         ;*******************************************************
                       ***********************
   92 00000000         ;
   93 00000000         ; The vector table.
   94 00000000         ;
   95 00000000         ;*******************************************************
                       ***********************
   96 00000000                 EXPORT           __Vectors
   97 00000000         __Vectors
   98 00000000 00000100        DCD              StackMem + Stack ; Top of Stack
                                                            
   99 00000004 00000000        DCD              Reset_Handler ; Reset Handler
  100 00000008 00000000        DCD              NmiSR       ; NMI Handler
  101 0000000C 00000000        DCD              FaultISR    ; Hard Fault Handle
                                                            r
  102 00000010 00000000        DCD              IntDefaultHandler ; The MPU fau
                                                            lt handler
  103 00000014 00000000        DCD              IntDefaultHandler ; The bus fau
                                                            lt handler
  104 00000018 00000000        DCD              IntDefaultHandler ; The usage f
                                                            ault handler
  105 0000001C 00000000        DCD              0           ; Reserved
  106 00000020 00000000        DCD              0           ; Reserved
  107 00000024 00000000        DCD              0           ; Reserved
  108 00000028 00000000        DCD              0           ; Reserved
  109 0000002C 00000000        DCD              IntDefaultHandler 
                                                            ; SVCall handler
  110 00000030 00000000        DCD              IntDefaultHandler ; Debug monit
                                                            or handler
  111 00000034 00000000        DCD              0           ; Reserved
  112 00000038 00000000        DCD              IntDefaultHandler ; The PendSV 
                                                            handler
  113 0000003C 00000000        DCD              IntDefaultHandler ; The SysTick
                                                             handler
  114 00000040 00000000        DCD              IntDefaultHandler ; GPIO Port A
                                                            
  115 00000044 00000000        DCD              IntDefaultHandler ; GPIO Port B
                                                            
  116 00000048 00000000        DCD              IntDefaultHandler ; GPIO Port C
                                                            
  117 0000004C 00000000        DCD              IntDefaultHandler ; GPIO Port D
                                                            
  118 00000050 00000000        DCD              IntDefaultHandler ; GPIO Port E
                                                            



ARM Macro Assembler    Page 4 


  119 00000054 00000000        DCD              IntDefaultHandler 
                                                            ; UART0 Rx and Tx
  120 00000058 00000000        DCD              IntDefaultHandler 
                                                            ; UART1 Rx and Tx
  121 0000005C 00000000        DCD              IntDefaultHandler 
                                                            ; SSI0 Rx and Tx
  122 00000060 00000000        DCD              IntDefaultHandler ; I2C0 Master
                                                             and Slave
  123 00000064 00000000        DCD              IntDefaultHandler ; PWM Fault
  124 00000068 00000000        DCD              IntDefaultHandler 
                                                            ; PWM Generator 0
  125 0000006C 00000000        DCD              IntDefaultHandler 
                                                            ; PWM Generator 1
  126 00000070 00000000        DCD              IntDefaultHandler 
                                                            ; PWM Generator 2
  127 00000074 00000000        DCD              IntDefaultHandler ; Quadrature 
                                                            Encoder 0
  128 00000078 00000000        DCD              IntDefaultHandler 
                                                            ; ADC Sequence 0
  129 0000007C 00000000        DCD              IntDefaultHandler 
                                                            ; ADC Sequence 1
  130 00000080 00000000        DCD              IntDefaultHandler 
                                                            ; ADC Sequence 2
  131 00000084 00000000        DCD              IntDefaultHandler 
                                                            ; ADC Sequence 3
  132 00000088 00000000        DCD              IntDefaultHandler 
                                                            ; Watchdog timer
  133 0000008C 00000000        DCD              IntDefaultHandler ; Timer 0 sub
                                                            timer A
  134 00000090 00000000        DCD              IntDefaultHandler ; Timer 0 sub
                                                            timer B
  135 00000094 00000000        DCD              IntDefaultHandler ; Timer 1 sub
                                                            timer A
  136 00000098 00000000        DCD              IntDefaultHandler ; Timer 1 sub
                                                            timer B
  137 0000009C 00000000        DCD              IntDefaultHandler ; Timer 2 sub
                                                            timer A
  138 000000A0 00000000        DCD              IntDefaultHandler ; Timer 2 sub
                                                            timer B
  139 000000A4 00000000        DCD              IntDefaultHandler ; Analog Comp
                                                            arator 0
  140 000000A8 00000000        DCD              IntDefaultHandler ; Analog Comp
                                                            arator 1
  141 000000AC 00000000        DCD              IntDefaultHandler ; Analog Comp
                                                            arator 2
  142 000000B0 00000000        DCD              IntDefaultHandler ; System Cont
                                                            rol (PLL, OSC, BO)
  143 000000B4 00000000        DCD              IntDefaultHandler 
                                                            ; FLASH Control
  144 000000B8 00000000        DCD              IntDefaultHandler ; GPIO Port F
                                                            
  145 000000BC 00000000        DCD              IntDefaultHandler ; GPIO Port G
                                                            
  146 000000C0 00000000        DCD              IntDefaultHandler ; GPIO Port H
                                                            
  147 000000C4 00000000        DCD              IntDefaultHandler 
                                                            ; UART2 Rx and Tx
  148 000000C8 00000000        DCD              IntDefaultHandler 
                                                            ; SSI1 Rx and Tx



ARM Macro Assembler    Page 5 


  149 000000CC 00000000        DCD              IntDefaultHandler ; Timer 3 sub
                                                            timer A
  150 000000D0 00000000        DCD              IntDefaultHandler ; Timer 3 sub
                                                            timer B
  151 000000D4 00000000        DCD              IntDefaultHandler ; I2C1 Master
                                                             and Slave
  152 000000D8 00000000        DCD              IntDefaultHandler ; Quadrature 
                                                            Encoder 1
  153 000000DC 00000000        DCD              IntDefaultHandler ; CAN0
  154 000000E0 00000000        DCD              IntDefaultHandler ; CAN1
  155 000000E4 00000000        DCD              0           ; Reserved
  156 000000E8 00000000        DCD              0           ; Reserved
  157 000000EC 00000000        DCD              IntDefaultHandler ; Hibernate
  158 000000F0 00000000        DCD              IntDefaultHandler ; USB0
  159 000000F4 00000000        DCD              IntDefaultHandler 
                                                            ; PWM Generator 3
  160 000000F8 00000000        DCD              IntDefaultHandler ; uDMA Softwa
                                                            re Transfer
  161 000000FC 00000000        DCD              IntDefaultHandler ; uDMA Error
  162 00000100 00000000        DCD              IntDefaultHandler 
                                                            ; ADC1 Sequence 0
  163 00000104 00000000        DCD              IntDefaultHandler 
                                                            ; ADC1 Sequence 1
  164 00000108 00000000        DCD              IntDefaultHandler 
                                                            ; ADC1 Sequence 2
  165 0000010C 00000000        DCD              IntDefaultHandler 
                                                            ; ADC1 Sequence 3
  166 00000110 00000000        DCD              0           ; Reserved
  167 00000114 00000000        DCD              0           ; Reserved
  168 00000118 00000000        DCD              IntDefaultHandler ; GPIO Port J
                                                            
  169 0000011C 00000000        DCD              IntDefaultHandler ; GPIO Port K
                                                            
  170 00000120 00000000        DCD              IntDefaultHandler ; GPIO Port L
                                                            
  171 00000124 00000000        DCD              IntDefaultHandler 
                                                            ; SSI2 Rx and Tx
  172 00000128 00000000        DCD              IntDefaultHandler 
                                                            ; SSI3 Rx and Tx
  173 0000012C 00000000        DCD              IntDefaultHandler 
                                                            ; UART3 Rx and Tx
  174 00000130 00000000        DCD              IntDefaultHandler 
                                                            ; UART4 Rx and Tx
  175 00000134 00000000        DCD              IntDefaultHandler 
                                                            ; UART5 Rx and Tx
  176 00000138 00000000        DCD              IntDefaultHandler 
                                                            ; UART6 Rx and Tx
  177 0000013C 00000000        DCD              IntDefaultHandler 
                                                            ; UART7 Rx and Tx
  178 00000140 00000000        DCD              0           ; Reserved
  179 00000144 00000000        DCD              0           ; Reserved
  180 00000148 00000000        DCD              0           ; Reserved
  181 0000014C 00000000        DCD              0           ; Reserved
  182 00000150 00000000        DCD              IntDefaultHandler ; I2C2 Master
                                                             and Slave
  183 00000154 00000000        DCD              IntDefaultHandler ; I2C3 Master
                                                             and Slave
  184 00000158 00000000        DCD              IntDefaultHandler ; Timer 4 sub
                                                            timer A



ARM Macro Assembler    Page 6 


  185 0000015C 00000000        DCD              IntDefaultHandler ; Timer 4 sub
                                                            timer B
  186 00000160 00000000        DCD              0           ; Reserved
  187 00000164 00000000        DCD              0           ; Reserved
  188 00000168 00000000        DCD              0           ; Reserved
  189 0000016C 00000000        DCD              0           ; Reserved
  190 00000170 00000000        DCD              0           ; Reserved
  191 00000174 00000000        DCD              0           ; Reserved
  192 00000178 00000000        DCD              0           ; Reserved
  193 0000017C 00000000        DCD              0           ; Reserved
  194 00000180 00000000        DCD              0           ; Reserved
  195 00000184 00000000        DCD              0           ; Reserved
  196 00000188 00000000        DCD              0           ; Reserved
  197 0000018C 00000000        DCD              0           ; Reserved
  198 00000190 00000000        DCD              0           ; Reserved
  199 00000194 00000000        DCD              0           ; Reserved
  200 00000198 00000000        DCD              0           ; Reserved
  201 0000019C 00000000        DCD              0           ; Reserved
  202 000001A0 00000000        DCD              0           ; Reserved
  203 000001A4 00000000        DCD              0           ; Reserved
  204 000001A8 00000000        DCD              0           ; Reserved
  205 000001AC 00000000        DCD              0           ; Reserved
  206 000001B0 00000000        DCD              IntDefaultHandler ; Timer 5 sub
                                                            timer A
  207 000001B4 00000000        DCD              IntDefaultHandler ; Timer 5 sub
                                                            timer B
  208 000001B8 00000000        DCD              IntDefaultHandler ; Wide Timer 
                                                            0 subtimer A
  209 000001BC 00000000        DCD              IntDefaultHandler ; Wide Timer 
                                                            0 subtimer B
  210 000001C0 00000000        DCD              IntDefaultHandler ; Wide Timer 
                                                            1 subtimer A
  211 000001C4 00000000        DCD              IntDefaultHandler ; Wide Timer 
                                                            1 subtimer B
  212 000001C8 00000000        DCD              IntDefaultHandler ; Wide Timer 
                                                            2 subtimer A
  213 000001CC 00000000        DCD              IntDefaultHandler ; Wide Timer 
                                                            2 subtimer B
  214 000001D0 00000000        DCD              IntDefaultHandler ; Wide Timer 
                                                            3 subtimer A
  215 000001D4 00000000        DCD              IntDefaultHandler ; Wide Timer 
                                                            3 subtimer B
  216 000001D8 00000000        DCD              IntDefaultHandler ; Wide Timer 
                                                            4 subtimer A
  217 000001DC 00000000        DCD              IntDefaultHandler ; Wide Timer 
                                                            4 subtimer B
  218 000001E0 00000000        DCD              IntDefaultHandler ; Wide Timer 
                                                            5 subtimer A
  219 000001E4 00000000        DCD              IntDefaultHandler ; Wide Timer 
                                                            5 subtimer B
  220 000001E8 00000000        DCD              IntDefaultHandler ; FPU
  221 000001EC 00000000        DCD              0           ; Reserved
  222 000001F0 00000000        DCD              0           ; Reserved
  223 000001F4 00000000        DCD              IntDefaultHandler ; I2C4 Master
                                                             and Slave
  224 000001F8 00000000        DCD              IntDefaultHandler ; I2C5 Master
                                                             and Slave
  225 000001FC 00000000        DCD              IntDefaultHandler ; GPIO Port M
                                                            



ARM Macro Assembler    Page 7 


  226 00000200 00000000        DCD              IntDefaultHandler ; GPIO Port N
                                                            
  227 00000204 00000000        DCD              IntDefaultHandler ; Quadrature 
                                                            Encoder 2
  228 00000208 00000000        DCD              0           ; Reserved
  229 0000020C 00000000        DCD              0           ; Reserved
  230 00000210 00000000        DCD              IntDefaultHandler ; GPIO Port P
                                                             (Summary or P0)
  231 00000214 00000000        DCD              IntDefaultHandler 
                                                            ; GPIO Port P1
  232 00000218 00000000        DCD              IntDefaultHandler 
                                                            ; GPIO Port P2
  233 0000021C 00000000        DCD              IntDefaultHandler 
                                                            ; GPIO Port P3
  234 00000220 00000000        DCD              IntDefaultHandler 
                                                            ; GPIO Port P4
  235 00000224 00000000        DCD              IntDefaultHandler 
                                                            ; GPIO Port P5
  236 00000228 00000000        DCD              IntDefaultHandler 
                                                            ; GPIO Port P6
  237 0000022C 00000000        DCD              IntDefaultHandler 
                                                            ; GPIO Port P7
  238 00000230 00000000        DCD              IntDefaultHandler ; GPIO Port Q
                                                             (Summary or Q0)
  239 00000234 00000000        DCD              IntDefaultHandler 
                                                            ; GPIO Port Q1
  240 00000238 00000000        DCD              IntDefaultHandler 
                                                            ; GPIO Port Q2
  241 0000023C 00000000        DCD              IntDefaultHandler 
                                                            ; GPIO Port Q3
  242 00000240 00000000        DCD              IntDefaultHandler 
                                                            ; GPIO Port Q4
  243 00000244 00000000        DCD              IntDefaultHandler 
                                                            ; GPIO Port Q5
  244 00000248 00000000        DCD              IntDefaultHandler 
                                                            ; GPIO Port Q6
  245 0000024C 00000000        DCD              IntDefaultHandler 
                                                            ; GPIO Port Q7
  246 00000250 00000000        DCD              IntDefaultHandler ; GPIO Port R
                                                            
  247 00000254 00000000        DCD              IntDefaultHandler ; GPIO Port S
                                                            
  248 00000258 00000000        DCD              IntDefaultHandler 
                                                            ; PWM 1 Generator 0
                                                            
  249 0000025C 00000000        DCD              IntDefaultHandler 
                                                            ; PWM 1 Generator 1
                                                            
  250 00000260 00000000        DCD              IntDefaultHandler 
                                                            ; PWM 1 Generator 2
                                                            
  251 00000264 00000000        DCD              IntDefaultHandler 
                                                            ; PWM 1 Generator 3
                                                            
  252 00000268 00000000        DCD              IntDefaultHandler ; PWM 1 Fault
                                                            
  253 0000026C         
  254 0000026C         ;*******************************************************
                       ***********************



ARM Macro Assembler    Page 8 


  255 0000026C         ;
  256 0000026C         ; This is the code that gets called when the processor f
                       irst starts execution
  257 0000026C         ; following a reset event.
  258 0000026C         ;
  259 0000026C         ;*******************************************************
                       ***********************
  260 0000026C                 EXPORT           Reset_Handler
  261 0000026C         Reset_Handler
  262 0000026C         ;
  263 0000026C         ; Enable the floating-point unit.  This must be done her
                       e to handle the
  264 0000026C         ; case where main() uses floating-point and the function
                        prologue saves
  265 0000026C         ; floating-point registers (which will fault if floating
                       -point is not
  266 0000026C         ; enabled).  Any configuration of the floating-point uni
                       t using
  267 0000026C         ; DriverLib APIs must be done here prior to the floating
                       -point unit
  268 0000026C         ; being enabled.
  269 0000026C         ;
  270 0000026C         ; Note that this does not use DriverLib since it might n
                       ot be included
  271 0000026C         ; in this project.
  272 0000026C         ;
  273 0000026C F64E 5088       MOVW             R0, #0xED88
  274 00000270 F2CE 0000       MOVT             R0, #0xE000
  275 00000274 6801            LDR              R1, [R0]
  276 00000276 F441 0170       ORR              R1, #0x00F00000
  277 0000027A 6001            STR              R1, [R0]
  278 0000027C         
  279 0000027C         ;
  280 0000027C         ; Call the C library enty point that handles startup.  T
                       his will copy
  281 0000027C         ; the .data section initializers from flash to SRAM and 
                       zero fill the
  282 0000027C         ; .bss section.
  283 0000027C         ;
  284 0000027C                 IMPORT           __main
  285 0000027C F7FF BFFE       B                __main
  286 00000280         
  287 00000280         ;*******************************************************
                       ***********************
  288 00000280         ;
  289 00000280         ; This is the code that gets called when the processor r
                       eceives a NMI.  This
  290 00000280         ; simply enters an infinite loop, preserving the system 
                       state for examination
  291 00000280         ; by a debugger.
  292 00000280         ;
  293 00000280         ;*******************************************************
                       ***********************
  294 00000280         NmiSR
  295 00000280 E7FE            B                NmiSR
  296 00000282         
  297 00000282         ;*******************************************************
                       ***********************
  298 00000282         ;



ARM Macro Assembler    Page 9 


  299 00000282         ; This is the code that gets called when the processor r
                       eceives a fault
  300 00000282         ; interrupt.  This simply enters an infinite loop, prese
                       rving the system state
  301 00000282         ; for examination by a debugger.
  302 00000282         ;
  303 00000282         ;*******************************************************
                       ***********************
  304 00000282         FaultISR
  305 00000282 E7FE            B                FaultISR
  306 00000284         
  307 00000284         ;*******************************************************
                       ***********************
  308 00000284         ;
  309 00000284         ; This is the code that gets called when the processor r
                       eceives an unexpected
  310 00000284         ; interrupt.  This simply enters an infinite loop, prese
                       rving the system state
  311 00000284         ; for examination by a debugger.
  312 00000284         ;
  313 00000284         ;*******************************************************
                       ***********************
  314 00000284         IntDefaultHandler
  315 00000284 E7FE            B                IntDefaultHandler
  316 00000286         
  317 00000286         ;*******************************************************
                       ***********************
  318 00000286         ;
  319 00000286         ; Make sure the end of this section is aligned.
  320 00000286         ;
  321 00000286         ;*******************************************************
                       ***********************
  322 00000286 00 00           ALIGN
  323 00000288         
  324 00000288         ;*******************************************************
                       ***********************
  325 00000288         ;
  326 00000288         ; Some code in the normal code section for initializing 
                       the heap and stack.
  327 00000288         ;
  328 00000288         ;*******************************************************
                       ***********************
  329 00000288                 AREA             |.text|, CODE, READONLY
  330 00000000         
  331 00000000         ;*******************************************************
                       ***********************
  332 00000000         ;
  333 00000000         ; The function expected of the C library startup code fo
                       r defining the stack
  334 00000000         ; and heap memory locations.  For the C library version 
                       of the startup code,
  335 00000000         ; provide this function so that the C library initializa
                       tion code can find out
  336 00000000         ; the location of the stack and heap.
  337 00000000         ;
  338 00000000         ;*******************************************************
                       ***********************
  339 00000000                 IF               :DEF: __MICROLIB
  344 00000000                 IMPORT           __use_two_region_memory



ARM Macro Assembler    Page 10 


  345 00000000                 EXPORT           __user_initial_stackheap
  346 00000000         __user_initial_stackheap
  347 00000000 4802            LDR              R0, =HeapMem
  348 00000002 4903            LDR              R1, =(StackMem + Stack)
  349 00000004 4A01            LDR              R2, =(HeapMem + Heap)
  350 00000006 4B03            LDR              R3, =StackMem
  351 00000008 4770            BX               LR
  352 0000000A                 ENDIF
  353 0000000A         
  354 0000000A         ;*******************************************************
                       ***********************
  355 0000000A         ;
  356 0000000A         ; Make sure the end of this section is aligned.
  357 0000000A         ;
  358 0000000A         ;*******************************************************
                       ***********************
  359 0000000A 00 00           ALIGN
  360 0000000C         
  361 0000000C         ;*******************************************************
                       ***********************
  362 0000000C         ;
  363 0000000C         ; Tell the assembler that we're done.
  364 0000000C         ;
  365 0000000C         ;*******************************************************
                       ***********************
  366 0000000C                 END
              00000000 
              00000100 
              00000000 
Command Line: --debug --xref --diag_suppress=9931 --cpu=Cortex-M4.fp --apcs=int
erwork --depend=.\objects\startup_rvmdk.d -o.\objects\startup_rvmdk.o -I.\RTE\_
project -IC:\Users\SamuelS\AppData\Local\Arm\Packs\Keil\TM4C_DFP\1.1.0\Device\I
nclude\TM4C123 -IC:\Keil_v5\ARM\CMSIS\Include --predefine="__EVAL SETA 1" --pre
define="__UVISION_VERSION SETA 528" --predefine="TM4C123GH6PM SETA 1" --list=.\
listings\startup_rvmdk.lst startup_rvmdk.S



ARM Macro Assembler    Page 1 Alphabetic symbol ordering
Relocatable symbols

STACK 00000000

Symbol: STACK
   Definitions
      At line 60 in file startup_rvmdk.S
   Uses
      None
Comment: STACK unused
StackMem 00000000

Symbol: StackMem
   Definitions
      At line 61 in file startup_rvmdk.S
   Uses
      At line 98 in file startup_rvmdk.S
      At line 348 in file startup_rvmdk.S
      At line 350 in file startup_rvmdk.S

__initial_sp 00000100

Symbol: __initial_sp
   Definitions
      At line 63 in file startup_rvmdk.S
   Uses
      None
Comment: __initial_sp unused
3 symbols



ARM Macro Assembler    Page 1 Alphabetic symbol ordering
Relocatable symbols

HEAP 00000000

Symbol: HEAP
   Definitions
      At line 70 in file startup_rvmdk.S
   Uses
      None
Comment: HEAP unused
HeapMem 00000000

Symbol: HeapMem
   Definitions
      At line 72 in file startup_rvmdk.S
   Uses
      At line 347 in file startup_rvmdk.S
      At line 349 in file startup_rvmdk.S

__heap_base 00000000

Symbol: __heap_base
   Definitions
      At line 71 in file startup_rvmdk.S
   Uses
      None
Comment: __heap_base unused
__heap_limit 00000000

Symbol: __heap_limit
   Definitions
      At line 74 in file startup_rvmdk.S
   Uses
      None
Comment: __heap_limit unused
4 symbols



ARM Macro Assembler    Page 1 Alphabetic symbol ordering
Relocatable symbols

FaultISR 00000282

Symbol: FaultISR
   Definitions
      At line 304 in file startup_rvmdk.S
   Uses
      At line 101 in file startup_rvmdk.S
      At line 305 in file startup_rvmdk.S

IntDefaultHandler 00000284

Symbol: IntDefaultHandler
   Definitions
      At line 314 in file startup_rvmdk.S
   Uses
      At line 102 in file startup_rvmdk.S
      At line 103 in file startup_rvmdk.S
      At line 104 in file startup_rvmdk.S
      At line 109 in file startup_rvmdk.S
      At line 110 in file startup_rvmdk.S
      At line 112 in file startup_rvmdk.S
      At line 113 in file startup_rvmdk.S
      At line 114 in file startup_rvmdk.S
      At line 115 in file startup_rvmdk.S
      At line 116 in file startup_rvmdk.S
      At line 117 in file startup_rvmdk.S
      At line 118 in file startup_rvmdk.S
      At line 119 in file startup_rvmdk.S
      At line 120 in file startup_rvmdk.S
      At line 121 in file startup_rvmdk.S
      At line 122 in file startup_rvmdk.S
      At line 123 in file startup_rvmdk.S
      At line 124 in file startup_rvmdk.S
      At line 125 in file startup_rvmdk.S
      At line 126 in file startup_rvmdk.S
      At line 127 in file startup_rvmdk.S
      At line 128 in file startup_rvmdk.S
      At line 129 in file startup_rvmdk.S
      At line 130 in file startup_rvmdk.S
      At line 131 in file startup_rvmdk.S
      At line 132 in file startup_rvmdk.S
      At line 133 in file startup_rvmdk.S
      At line 134 in file startup_rvmdk.S
      At line 135 in file startup_rvmdk.S
      At line 136 in file startup_rvmdk.S
      At line 137 in file startup_rvmdk.S
      At line 138 in file startup_rvmdk.S
      At line 139 in file startup_rvmdk.S
      At line 140 in file startup_rvmdk.S
      At line 141 in file startup_rvmdk.S
      At line 142 in file startup_rvmdk.S
      At line 143 in file startup_rvmdk.S
      At line 144 in file startup_rvmdk.S
      At line 145 in file startup_rvmdk.S
      At line 146 in file startup_rvmdk.S
      At line 147 in file startup_rvmdk.S
      At line 148 in file startup_rvmdk.S
      At line 149 in file startup_rvmdk.S
      At line 150 in file startup_rvmdk.S



ARM Macro Assembler    Page 2 Alphabetic symbol ordering
Relocatable symbols

      At line 151 in file startup_rvmdk.S
      At line 152 in file startup_rvmdk.S
      At line 153 in file startup_rvmdk.S
      At line 154 in file startup_rvmdk.S
      At line 157 in file startup_rvmdk.S
      At line 158 in file startup_rvmdk.S
      At line 159 in file startup_rvmdk.S
      At line 160 in file startup_rvmdk.S
      At line 161 in file startup_rvmdk.S
      At line 162 in file startup_rvmdk.S
      At line 163 in file startup_rvmdk.S
      At line 164 in file startup_rvmdk.S
      At line 165 in file startup_rvmdk.S
      At line 168 in file startup_rvmdk.S
      At line 169 in file startup_rvmdk.S
      At line 170 in file startup_rvmdk.S
      At line 171 in file startup_rvmdk.S
      At line 172 in file startup_rvmdk.S
      At line 173 in file startup_rvmdk.S
      At line 174 in file startup_rvmdk.S
      At line 175 in file startup_rvmdk.S
      At line 176 in file startup_rvmdk.S
      At line 177 in file startup_rvmdk.S
      At line 182 in file startup_rvmdk.S
      At line 183 in file startup_rvmdk.S
      At line 184 in file startup_rvmdk.S
      At line 185 in file startup_rvmdk.S
      At line 206 in file startup_rvmdk.S
      At line 207 in file startup_rvmdk.S
      At line 208 in file startup_rvmdk.S
      At line 209 in file startup_rvmdk.S
      At line 210 in file startup_rvmdk.S
      At line 211 in file startup_rvmdk.S
      At line 212 in file startup_rvmdk.S
      At line 213 in file startup_rvmdk.S
      At line 214 in file startup_rvmdk.S
      At line 215 in file startup_rvmdk.S
      At line 216 in file startup_rvmdk.S
      At line 217 in file startup_rvmdk.S
      At line 218 in file startup_rvmdk.S
      At line 219 in file startup_rvmdk.S
      At line 220 in file startup_rvmdk.S
      At line 223 in file startup_rvmdk.S
      At line 224 in file startup_rvmdk.S
      At line 225 in file startup_rvmdk.S
      At line 226 in file startup_rvmdk.S
      At line 227 in file startup_rvmdk.S
      At line 230 in file startup_rvmdk.S
      At line 231 in file startup_rvmdk.S
      At line 232 in file startup_rvmdk.S
      At line 233 in file startup_rvmdk.S
      At line 234 in file startup_rvmdk.S
      At line 235 in file startup_rvmdk.S
      At line 236 in file startup_rvmdk.S
      At line 237 in file startup_rvmdk.S
      At line 238 in file startup_rvmdk.S
      At line 239 in file startup_rvmdk.S
      At line 240 in file startup_rvmdk.S
      At line 241 in file startup_rvmdk.S



ARM Macro Assembler    Page 3 Alphabetic symbol ordering
Relocatable symbols

      At line 242 in file startup_rvmdk.S
      At line 243 in file startup_rvmdk.S
      At line 244 in file startup_rvmdk.S
      At line 245 in file startup_rvmdk.S
      At line 246 in file startup_rvmdk.S
      At line 247 in file startup_rvmdk.S
      At line 248 in file startup_rvmdk.S
      At line 249 in file startup_rvmdk.S
      At line 250 in file startup_rvmdk.S
      At line 251 in file startup_rvmdk.S
      At line 252 in file startup_rvmdk.S
      At line 315 in file startup_rvmdk.S

NmiSR 00000280

Symbol: NmiSR
   Definitions
      At line 294 in file startup_rvmdk.S
   Uses
      At line 100 in file startup_rvmdk.S
      At line 295 in file startup_rvmdk.S

RESET 00000000

Symbol: RESET
   Definitions
      At line 88 in file startup_rvmdk.S
   Uses
      None
Comment: RESET unused
Reset_Handler 0000026C

Symbol: Reset_Handler
   Definitions
      At line 261 in file startup_rvmdk.S
   Uses
      At line 99 in file startup_rvmdk.S
      At line 260 in file startup_rvmdk.S

__Vectors 00000000

Symbol: __Vectors
   Definitions
      At line 97 in file startup_rvmdk.S
   Uses
      At line 96 in file startup_rvmdk.S
Comment: __Vectors used once
6 symbols



ARM Macro Assembler    Page 1 Alphabetic symbol ordering
Relocatable symbols

.text 00000000

Symbol: .text
   Definitions
      At line 329 in file startup_rvmdk.S
   Uses
      None
Comment: .text unused
__user_initial_stackheap 00000000

Symbol: __user_initial_stackheap
   Definitions
      At line 346 in file startup_rvmdk.S
   Uses
      At line 345 in file startup_rvmdk.S
Comment: __user_initial_stackheap used once
2 symbols



ARM Macro Assembler    Page 1 Alphabetic symbol ordering
Absolute symbols

Heap 00000000

Symbol: Heap
   Definitions
      At line 53 in file startup_rvmdk.S
   Uses
      At line 73 in file startup_rvmdk.S
      At line 349 in file startup_rvmdk.S

Stack 00000100

Symbol: Stack
   Definitions
      At line 46 in file startup_rvmdk.S
   Uses
      At line 62 in file startup_rvmdk.S
      At line 98 in file startup_rvmdk.S
      At line 348 in file startup_rvmdk.S

2 symbols



ARM Macro Assembler    Page 1 Alphabetic symbol ordering
External symbols

__main 00000000

Symbol: __main
   Definitions
      At line 284 in file startup_rvmdk.S
   Uses
      At line 285 in file startup_rvmdk.S
Comment: __main used once
__use_two_region_memory 00000000

Symbol: __use_two_region_memory
   Definitions
      At line 344 in file startup_rvmdk.S
   Uses
      None
Comment: __use_two_region_memory unused
2 symbols
357 symbols in table
